42 5. Программирование в ограничениях – Исследование операций
…
d <- geodist(tbl)
res <- kmeans(d,12)

leaflet() |> 
  addTiles() |> 
  addMarkers(tbl$lon,
             tbl$lat, 
             label = res$cluster,
             labelOptions = labelOptions(noHide = TRUE))

tbl

# A tibble: 52 × 4
     lon   lat name                                              pop
   <dbl> <dbl> <chr>                                           <int>
 1  27.5  53.8 Биологический факультет                           510
 2  27.5  53.9 Факультет журналистики                            721
 3  27.5  53.9 Факультет прикладной математики и информатики     737
 4  27.5  53.9 Факультет философии и социальных наук             940
 5  27.5  53.9 Химический факультет                              883
 6  27.5  53.9 Факультет международных отношений                 982
 7  27.6  53.9 Военный факультет                                 610
 8  27.6  53.9 Исторический факультет                            385
 9  27.5  53.8 Факультет радиофизики и компьютерных технологий   609
10  27.5  53.9 Физический факультет                              989
# ℹ 42 more rows
…
